<?xml version="1.0" encoding="utf-8"?>
<!-- Generator: Adobe Illustrator 16.0.0, SVG Export Plug-In . SVG Version: 6.00 Build 0)  -->
<!DOCTYPE svg PUBLIC "-//W3C//DTD SVG 1.1//EN" "http://www.w3.org/Graphics/SVG/1.1/DTD/svg11.dtd">
<svg version="1.1" id="Capa_1" xmlns="http://www.w3.org/2000/svg" xmlns:xlink="http://www.w3.org/1999/xlink" x="0px" y="0px"
	 width="51px" height="42px" viewBox="0 0 51 42" enable-background="new 0 0 51 42" xml:space="preserve">
<g>
	<g>
		<path fill="#FFFFFF" d="M39.654,0H11.38c-0.76,0-1.369,0.607-1.369,1.368v38.949c0,0.752,0.609,1.37,1.369,1.37h20.977
			c0.338,0,0.665-0.125,0.916-0.352l7.298-6.53c0.29-0.26,0.456-0.634,0.456-1.018V1.368C41.027,0.607,40.415,0,39.654,0L39.654,0z
			 M38.293,33.019h-6.365v5.85l-0.087,0.077h-19.09V2.74h25.542V33.019z M38.293,33.019"/>
		<path fill="#FFFFFF" d="M28.026,24.328h-6.951c-0.4,0-0.713,0.321-0.713,0.721v6.953c0,0.399,0.313,0.712,0.713,0.712h6.951
			c0.401,0,0.714-0.321,0.714-0.712v-6.953C28.75,24.656,28.428,24.328,28.026,24.328L28.026,24.328z M27.315,31.289h-5.529v-5.53
			h5.529V31.289z M27.315,31.289"/>
		<path fill="#FFFFFF" d="M28.655,13.74v-0.053c0-0.344-0.283-0.628-0.635-0.628h-6.938c-0.354,0-0.635,0.285-0.635,0.628v6.945
			c0,0.354,0.281,0.636,0.635,0.636h6.943c0.346,0,0.629-0.282,0.629-0.636v-2.477l-1.112,1.115
			c-0.047,0.047-0.102,0.064-0.15,0.103v0.634H21.71v-5.685h5.682v0.68L28.655,13.74z M28.655,13.74"/>
		<path fill="#FFFFFF" d="M29.954,13.335l-3.518,3.514l-1.345-1.345c-0.367-0.368-0.956-0.368-1.316,0
			c-0.367,0.358-0.367,0.948,0,1.313l2.005,2.003c0.179,0.183,0.415,0.276,0.656,0.276c0.236,0,0.48-0.094,0.66-0.276l4.174-4.18
			c0.367-0.359,0.367-0.947,0-1.314C30.909,12.966,30.321,12.966,29.954,13.335L29.954,13.335z M29.954,13.335"/>
		<rect x="16.392" y="6.67" fill="#FFFFFF" width="18.253" height="1.904"/>
	</g>
</g>
</svg>
