<?xml version="1.0" encoding="utf-8"?>
<!-- Generator: Adobe Illustrator 16.0.0, SVG Export Plug-In . SVG Version: 6.00 Build 0)  -->
<!DOCTYPE svg PUBLIC "-//W3C//DTD SVG 1.1//EN" "http://www.w3.org/Graphics/SVG/1.1/DTD/svg11.dtd">
<svg version="1.1" id="Capa_1" xmlns="http://www.w3.org/2000/svg" xmlns:xlink="http://www.w3.org/1999/xlink" x="0px" y="0px"
	 width="51px" height="42px" viewBox="0 0 51 42" enable-background="new 0 0 51 42" xml:space="preserve">
<g>
	<path fill="#FFFFFF" d="M27.294,9.151c-0.512-0.514-1.345-0.514-1.855,0L9.907,24.679c-0.245,0.243-0.384,0.579-0.384,0.929v11.325
		c0,2.656,2.155,4.812,4.813,4.812h7.69v-11.91h8.682v11.91h7.689c2.658,0,4.813-2.155,4.813-4.812V25.607
		c0-0.35-0.138-0.686-0.384-0.929L27.294,9.151z M27.294,9.151"/>
	<path fill="#FFFFFF" d="M48.883,19.609l-7.062-7.063V4.388c0-1.474-1.194-2.669-2.672-2.669c-1.475,0-2.669,1.196-2.669,2.669
		v2.817l-5.259-5.259c-2.601-2.596-7.12-2.593-9.714,0.004L3.849,19.609c-1.042,1.044-1.042,2.734,0,3.776
		c1.044,1.045,2.737,1.045,3.779,0L25.283,5.727c0.577-0.572,1.59-0.572,2.162-0.001l17.659,17.66
		c0.524,0.522,1.208,0.782,1.889,0.782c0.684,0,1.369-0.26,1.89-0.782C49.927,22.343,49.927,20.653,48.883,19.609L48.883,19.609z
		 M48.883,19.609"/>
</g>
</svg>
